org\scilab\forge\jlatexmath\UnderOverArrowAtom.class
org\scilab\forge\jlatexmath\TextStyleMappingNotFoundException.class
org\scilab\forge\jlatexmath\FcscoreBox.class
org\scilab\forge\jlatexmath\GraphicsBox.class
org\scilab\forge\jlatexmath\ext\FontUtil$FontVersion.class
org\scilab\forge\jlatexmath\StrikeThroughAtom.class
org\scilab\forge\jlatexmath\URLAlphabetRegistration.class
org\scilab\forge\jlatexmath\TeXParser.class
org\scilab\forge\jlatexmath\cache\JLaTeXMathCache.class
org\scilab\forge\jlatexmath\ScaleBox.class
org\scilab\forge\jlatexmath\GeoGebraLogoAtom.class
org\scilab\forge\jlatexmath\CedillaAtom.class
org\scilab\forge\jlatexmath\TeXFormulaParser$TeXConstantsValueParser.class
org\scilab\forge\jlatexmath\SpaceAtom$7.class
org\scilab\forge\jlatexmath\AccentedAtom.class
org\scilab\forge\jlatexmath\TeXFormulaParser$IntValueParser.class
org\scilab\forge\jlatexmath\SymbolAtom.class
org\scilab\forge\jlatexmath\MiddleAtom.class
org\scilab\forge\jlatexmath\TeXFormulaParser$FloatValueParser.class
org\scilab\forge\jlatexmath\TeXConstants.class
org\scilab\forge\jlatexmath\CharFont.class
org\scilab\forge\jlatexmath\CharAtom.class
org\scilab\forge\jlatexmath\SpaceAtom$1.class
org\scilab\forge\jlatexmath\Glue.class
org\scilab\forge\jlatexmath\IddotsAtom.class
org\scilab\forge\jlatexmath\TeXFormula$FontInfos.class
org\scilab\forge\jlatexmath\TeXFormulaParser$ColorConstantValueParser.class
org\scilab\forge\jlatexmath\DefaultTeXFontParser$ExtensionParser.class
org\scilab\forge\jlatexmath\NewCommandMacro.class
org\scilab\forge\jlatexmath\ColorAtom.class
org\scilab\forge\jlatexmath\RaiseAtom.class
org\scilab\forge\jlatexmath\SmashedAtom.class
org\scilab\forge\jlatexmath\XArrowAtom.class
org\scilab\forge\jlatexmath\FormulaNotFoundException.class
org\scilab\forge\jlatexmath\FBoxAtom.class
org\scilab\forge\jlatexmath\FixedCharAtom.class
org\scilab\forge\jlatexmath\tcaronAtom.class
org\scilab\forge\jlatexmath\FencedAtom.class
org\scilab\forge\jlatexmath\cyrillic\CyrillicRegistration.class
org\scilab\forge\jlatexmath\SpaceAtom.class
org\scilab\forge\jlatexmath\ArrayOfAtoms.class
org\scilab\forge\jlatexmath\SpaceAtom$2.class
org\scilab\forge\jlatexmath\HdotsforAtom.class
org\scilab\forge\jlatexmath\DdotsAtom.class
org\scilab\forge\jlatexmath\RuleAtom.class
org\scilab\forge\jlatexmath\JavaFontRenderingAtom.class
org\scilab\forge\jlatexmath\TeXFormulaParser$BooleanValueParser.class
org\scilab\forge\jlatexmath\UnderscoreAtom.class
org\scilab\forge\jlatexmath\ParseException.class
org\scilab\forge\jlatexmath\StyleAtom.class
org\scilab\forge\jlatexmath\DefaultTeXFontParser$CharChildParser.class
org\scilab\forge\jlatexmath\InvalidUnitException.class
org\scilab\forge\jlatexmath\BreakFormula$Position.class
org\scilab\forge\jlatexmath\SpaceAtom$8.class
org\scilab\forge\jlatexmath\AlphabetRegistration.class
org\scilab\forge\jlatexmath\Dummy.class
org\scilab\forge\jlatexmath\SpaceAtom$5.class
org\scilab\forge\jlatexmath\TeXFormula$TeXIconBuilder.class
org\scilab\forge\jlatexmath\ResizeAtom.class
org\scilab\forge\jlatexmath\ReflectBox.class
org\scilab\forge\jlatexmath\ext\MathRendering$Value.class
org\scilab\forge\jlatexmath\LapedAtom.class
org\scilab\forge\jlatexmath\ScaleAtom.class
org\scilab\forge\jlatexmath\OvalBox.class
org\scilab\forge\jlatexmath\DefaultTeXFontParser$LigParser.class
org\scilab\forge\jlatexmath\GlueSettingsParser.class
org\scilab\forge\jlatexmath\TeXFont.class
org\scilab\forge\jlatexmath\NthRoot.class
org\scilab\forge\jlatexmath\VlineAtom.class
org\scilab\forge\jlatexmath\CharSymbol.class
org\scilab\forge\jlatexmath\ItAtom.class
org\scilab\forge\jlatexmath\TeXFormulaParser$CreateCommandParser.class
org\scilab\forge\jlatexmath\ShadowAtom.class
org\scilab\forge\jlatexmath\SpaceAtom$12.class
org\scilab\forge\jlatexmath\HorizontalBox.class
org\scilab\forge\jlatexmath\ext\MathRendering$Key.class
org\scilab\forge\jlatexmath\OvalAtom.class
org\scilab\forge\jlatexmath\TextStyleAtom.class
org\scilab\forge\jlatexmath\GlueBox.class
org\scilab\forge\jlatexmath\BreakMarkAtom.class
org\scilab\forge\jlatexmath\InvalidSymbolTypeException.class
org\scilab\forge\jlatexmath\VerticalBox.class
org\scilab\forge\jlatexmath\InvalidDelimiterTypeException.class
org\scilab\forge\jlatexmath\FontAlreadyLoadedException.class
org\scilab\forge\jlatexmath\TeXFormulaParser$ReturnParser.class
org\scilab\forge\jlatexmath\UnderOverAtom.class
org\scilab\forge\jlatexmath\SmallCapAtom.class
org\scilab\forge\jlatexmath\SpaceAtom$13.class
org\scilab\forge\jlatexmath\MulticolumnAtom.class
org\scilab\forge\jlatexmath\BoldAtom.class
org\scilab\forge\jlatexmath\InvalidDelimiterException.class
org\scilab\forge\jlatexmath\SpaceAtom$6.class
org\scilab\forge\jlatexmath\LaTeXAtom.class
org\scilab\forge\jlatexmath\TeXFormula.class
org\scilab\forge\jlatexmath\DefaultTeXFont.class
org\scilab\forge\jlatexmath\JMathTeXException.class
org\scilab\forge\jlatexmath\cache\JLaTeXMathCache$CachedTeXFormula.class
org\scilab\forge\jlatexmath\TeXFormulaParser$CreateTeXFormulaParser.class
org\scilab\forge\jlatexmath\MatrixAtom.class
org\scilab\forge\jlatexmath\SpaceAtom$10.class
org\scilab\forge\jlatexmath\InvalidMatrixException.class
org\scilab\forge\jlatexmath\SpaceAtom$UnitConversion.class
org\scilab\forge\jlatexmath\EmptyAtom.class
org\scilab\forge\jlatexmath\TeXIcon.class
org\scilab\forge\jlatexmath\ResourceParseException.class
org\scilab\forge\jlatexmath\dynamic\ExternalConverter.class
org\scilab\forge\jlatexmath\WebStartAlphabetRegistration.class
org\scilab\forge\jlatexmath\HlineAtom.class
org\scilab\forge\jlatexmath\TeXFormulaParser$CharValueParser.class
org\scilab\forge\jlatexmath\TeXFormulaParser$StringValueParser.class
org\scilab\forge\jlatexmath\GeoGebraLogoBox.class
org\scilab\forge\jlatexmath\MonoScaleAtom.class
org\scilab\forge\jlatexmath\MultlineAtom.class
org\scilab\forge\jlatexmath\MacroInfo.class
org\scilab\forge\jlatexmath\SpaceAtom$4.class
org\scilab\forge\jlatexmath\DefaultTeXFontParser$KernParser.class
org\scilab\forge\jlatexmath\XMLResourceParseException.class
org\scilab\forge\jlatexmath\TeXFormulaSettingsParser.class
org\scilab\forge\jlatexmath\MathAtom.class
org\scilab\forge\jlatexmath\TextCircledAtom.class
org\scilab\forge\jlatexmath\RotateAtom.class
org\scilab\forge\jlatexmath\SpaceAtom$3.class
org\scilab\forge\jlatexmath\PredefMacros.class
org\scilab\forge\jlatexmath\AlphabetRegistrationException.class
org\scilab\forge\jlatexmath\ext\FontUtil.class
org\scilab\forge\jlatexmath\TeXEnvironment.class
org\scilab\forge\jlatexmath\InvalidAtomTypeException.class
org\scilab\forge\jlatexmath\BigOperatorAtom.class
org\scilab\forge\jlatexmath\FontInfo.class
org\scilab\forge\jlatexmath\DoubleFramedAtom.class
org\scilab\forge\jlatexmath\FractionAtom.class
org\scilab\forge\jlatexmath\TStrokeAtom.class
org\scilab\forge\jlatexmath\SpaceAtom$11.class
org\scilab\forge\jlatexmath\EmptyFormulaException.class
org\scilab\forge\jlatexmath\ReflectAtom.class
org\scilab\forge\jlatexmath\OverBar.class
org\scilab\forge\jlatexmath\InvalidTeXFormulaException.class
org\scilab\forge\jlatexmath\PhantomAtom.class
org\scilab\forge\jlatexmath\LCaronAtom.class
org\scilab\forge\jlatexmath\VdotsAtom.class
org\scilab\forge\jlatexmath\TtAtom.class
org\scilab\forge\jlatexmath\TeXFormulaParser$MethodInvocationParser.class
org\scilab\forge\jlatexmath\SpaceAtom$9.class
org\scilab\forge\jlatexmath\FramedBox.class
org\scilab\forge\jlatexmath\ext\MathRendering.class
org\scilab\forge\jlatexmath\SsAtom.class
org\scilab\forge\jlatexmath\PredefinedTeXFormulaParser.class
org\scilab\forge\jlatexmath\RotateBox.class
org\scilab\forge\jlatexmath\IJAtom.class
org\scilab\forge\jlatexmath\PredefMacroInfo.class
org\scilab\forge\jlatexmath\cache\JLaTeXMathCache$CachedImage.class
org\scilab\forge\jlatexmath\XLeftRightArrowFactory.class
org\scilab\forge\jlatexmath\GraphicsAtom.class
org\scilab\forge\jlatexmath\ext\FontUtil$1.class
org\scilab\forge\jlatexmath\DefaultTeXFontParser$NextLargerParser.class
org\scilab\forge\jlatexmath\OverUnderDelimiter.class
org\scilab\forge\jlatexmath\ShadowBox.class
org\scilab\forge\jlatexmath\TeXFormulaParser$TeXFormulaValueParser.class
org\scilab\forge\jlatexmath\UnderlinedAtom.class
org\scilab\forge\jlatexmath\FcscoreAtom.class
org\scilab\forge\jlatexmath\BigDelimiterAtom.class
org\scilab\forge\jlatexmath\dynamic\ExternalConverterFactory.class
org\scilab\forge\jlatexmath\NewEnvironmentMacro.class
org\scilab\forge\jlatexmath\SymbolMappingNotFoundException.class
org\scilab\forge\jlatexmath\FontInfo$CharCouple.class
org\scilab\forge\jlatexmath\ScriptsAtom.class
org\scilab\forge\jlatexmath\StrutBox.class
org\scilab\forge\jlatexmath\ParseOption.class
org\scilab\forge\jlatexmath\TypedAtom.class
org\scilab\forge\jlatexmath\Atom.class
org\scilab\forge\jlatexmath\Metrics.class
org\scilab\forge\jlatexmath\OverUnderBox.class
org\scilab\forge\jlatexmath\CumulativeScriptsAtom.class
org\scilab\forge\jlatexmath\greek\GreekRegistration.class
org\scilab\forge\jlatexmath\Extension.class
org\scilab\forge\jlatexmath\DefaultTeXFontParser.class
org\scilab\forge\jlatexmath\OverlinedAtom.class
org\scilab\forge\jlatexmath\HorizontalRule.class
org\scilab\forge\jlatexmath\VRowAtom.class
org\scilab\forge\jlatexmath\TeXFormulaParser$ActionParser.class
org\scilab\forge\jlatexmath\CharBox.class
org\scilab\forge\jlatexmath\TeXFormulaParser$ArgumentValueParser.class
org\scilab\forge\jlatexmath\TeXSymbolParser.class
org\scilab\forge\jlatexmath\JavaFontRenderingBox.class
org\scilab\forge\jlatexmath\DelimiterFactory.class
org\scilab\forge\jlatexmath\OgonekAtom.class
org\scilab\forge\jlatexmath\Row.class
org\scilab\forge\jlatexmath\SymbolNotFoundException.class
org\scilab\forge\jlatexmath\RomanAtom.class
org\scilab\forge\jlatexmath\RowAtom.class
org\scilab\forge\jlatexmath\dynamic\DynamicAtom.class
org\scilab\forge\jlatexmath\PredefinedTeXFormulas.class
org\scilab\forge\jlatexmath\Box.class
org\scilab\forge\jlatexmath\VCenteredAtom.class
org\scilab\forge\jlatexmath\BreakFormula.class
org\scilab\forge\jlatexmath\Char.class
org\scilab\forge\jlatexmath\TeXFormulaParser.class
org\scilab\forge\jlatexmath\PredefinedCommands.class
org\scilab\forge\jlatexmath\DelimiterMappingNotFoundException.class
